^G:\PROJECTS\EEG-BCI\EPOC_WORK\FIRSTCUDAPROGRAM\DEBUG\KERNEL.CU.OBJ
G:\PROJECTS\EEG-BCI\EPOC_WORK\DEBUG\FIRSTCUDAPROGRAM.ILK
G:\PROJECTS\EEG-BCI\EPOC_WORK\DEBUG\FIRSTCUDAPROGRAM.EXE
G:\PROJECTS\EEG-BCI\EPOC_WORK\DEBUG\FIRSTCUDAPROGRAM.PDB
